Differential Analysis with cyCONDOR • cyCONDOR
…
Export aggregated expression as data frame

For custom visualizations, the getTable() function can
be used to calculate the median (output_type = "median") or
the mean (output_type = "mean") expression for all
combinations of cell populations and group variables in
group_var.

getTable(fcd = condor,
         output_type = "mean",
         cluster_slot = "phenograph_pca_orig_k_60", 
         cluster_var = "metaclusters", 
         group_var = "sample_ID", 
         numeric = F)
#> # A tibble: 66 × 30
#> # Groups:   group_var [6]
#>    group_var cluster   `FSC-A` `SSC-A`  CD38   CD8 `CD195 (CCR5)` `CD94 (KLRD1)`
#>    <chr>     <fct>       <dbl>   <dbl> <dbl> <dbl>          <dbl>          <dbl>
#>  1 ID10      Classica…    4.26    4.03  3.61 1.53            1.60          2.21 
#>  2 ID10      CD4          4.15    3.54  2.42 2.12            1.86          1.35 
#>  3 ID10      CD8          4.12    3.66  1.83 3.63            1.96          2.22 
#>  4 ID10      Nk dim       4.09    3.71  3.24 1.82            1.24          2.74 
#>  5 ID10      Unconven…    4.14    3.68  1.47 1.95            2.29          1.52 
#>  6 ID10      CD16+ Mo…    4.22    3.96  1.83 2.01            1.96          2.64 
#>  7 ID10      NK bright    4.08    3.68  2.88 1.89            1.48          3.22 
#>  8 ID10      B cells      4.07    3.66  2.63 1.84            1.76          2.08 
#>  9 ID10      pDCs         4.21    3.81  3.32 1.65            3.53          1.44 
#> 10 ID10      Basophils    4.18    3.88  4.04 0.990           2.43          0.657
#> # ℹ 56 more rows
#> # ℹ 22 more variables: CD45RA <dbl>, `HLA-DR` <dbl>, CD56 <dbl>,
#> #   `CD127 (IL7RA)` <dbl>, CD14 <dbl>, CD64 <dbl>, CD4 <dbl>, IgD <dbl>,
#> #   CD19 <dbl>, CD16 <dbl>, CD32 <dbl>, `CD197 (CCR7)` <dbl>, CD20 <dbl>,
#> #   CD27 <dbl>, CD15 <dbl>, `PD-1` <dbl>, CD3 <dbl>, CD57 <dbl>, CD25 <dbl>,
#> #   `CD123 (IL3RA)` <dbl>, CD13 <dbl>, CD11c <dbl>
…
